…
\#model

``` r
logistic_glm <- logistic_reg(mode="classification")%>%
  set_engine("glm")%>%
  fit(response~.,data=bake_train)

tidy(logistic_glm)%>%
  mutate_at(c("estimate","std.error","statistic","p.value"),round,4)
```

    ## # A tibble: 35 × 5
    ##    term        estimate std.error statistic p.value
    ##    <chr>          <dbl>     <dbl>     <dbl>   <dbl>
    ##  1 (Intercept)  -5.29    535.       -0.0099  0.992 
    ##  2 income        0         0        -0.759   0.448 
    ##  3 kids          0.0801    0.266     0.302   0.763 
    ##  4 teens        -1.01      0.244    -4.16    0     
    ##  5 recency      -0.0291    0.0036   -8.19    0     
    ##  6 wines        -0.0003    0.0005   -0.680   0.496 
    ##  7 fruits        0         0.003    -0.0149  0.988 
    ##  8 meat          0.0013    0.0006    2.17    0.0297
    ##  9 fish         -0.0002    0.0023   -0.0977  0.922 
    ## 10 sweets        0.0004    0.0028    0.133   0.894 
    ## # … with 25 more rows
    ## # ℹ Use `print(n = ...)` to see more rows
…
new1<-predict(logistic_step,bake_new_step,type="prob")%>%
  bind_cols(predict(logistic_step,bake_new_step,type="class"))%>%
  bind_cols(bake_new_step)

new_customer%>%
  dplyr::select(id)%>%
  bind_cols(new1%>%
         dplyr::select(.pred_class) )
```

    ## # A tibble: 40 × 2
    ##       id .pred_class
    ##    <dbl> <fct>      
    ##  1   111 0          
    ##  2   112 0          
    ##  3   113 0          
    ##  4   114 0          
    ##  5   115 1          
    ##  6   116 0          
    ##  7   117 0          
    ##  8   118 0          
    ##  9   119 0          
    ## 10   120 0          
    ## # … with 30 more rows
    ## # ℹ Use `print(n = ...)` to see more rows
…
\#Even though i made a prediction for the new_customer data, this is not
my final model. I take reduced logistic model prediction as my final
prediction and put that in my report.

``` r
new2<-predict(rf_workflow, new_customer, type = "prob")  %>%
  bind_cols(predict(rf_workflow,new_customer,type="class"))%>%
  bind_cols(new_customer)

new2%>%
  dplyr::select(id,.pred_class)
```

    ## # A tibble: 40 × 2
    ##       id .pred_class
    ##    <dbl> <fct>      
    ##  1   111 0          
    ##  2   112 0          
    ##  3   113 0          
    ##  4   114 0          
    ##  5   115 0          
    ##  6   116 0          
    ##  7   117 0          
    ##  8   118 0          
    ##  9   119 0          
    ## 10   120 0          
    ## # … with 30 more rows
    ## # ℹ Use `print(n = ...)` to see more rows
…
