…
    ## Warning: glm.fit: algorithm did not converge

    ## Warning: glm.fit: fitted probabilities numerically 0 or 1 occurred

``` r
tidy(logistic_glm)%>%
  mutate_at(c("estimate","std.error","statistic","p.value"),round,4)
```

    ## # A tibble: 82 × 5
    ##    term                        estimate std.error statistic p.value
    ##    <chr>                          <dbl>     <dbl>     <dbl>   <dbl>
    ##  1 (Intercept)                -9.84e+11  1.07e+12    -0.922  0.357 
    ##  2 school_latitude             2.03e- 2  1.6 e- 3    12.4    0     
    ##  3 school_longitude            4.3 e- 3  4   e- 4     9.76   0     
    ##  4 teacher_referred_count      3.52e- 1  3.5 e- 3   101.     0     
    ##  5 non_teacher_referred_count  6.26e- 2  1.1 e- 3    55.8    0     
    ##  6 school_charter              2.80e- 1  2.52e- 2    11.1    0     
    ##  7 school_magnet              -3.84e- 2  2.71e- 2    -1.42   0.157 
    ##  8 school_year_round          -6.95e- 2  3.7 e- 2    -1.88   0.0607
    ##  9 school_nlns                 1.48e- 2  5.81e- 2     0.254  0.799 
    ## 10 school_kipp                 9.9 e- 2  7.59e- 2     1.30   0.192 
    ## # … with 72 more rows
    ## # ℹ Use `print(n = ...)` to see more rows
…
